{
  "contractName": "ReentrancyGuard",
  "abi": [
    {
      "inputs": [],
      "stateMutability": "nonpayable",
      "type": "constructor"
    }
  ],
  "metadata": "{\"compiler\":{\"version\":\"0.6.2+commit.bacdbe57\"},\"language\":\"Solidity\",\"output\":{\"abi\":[{\"inputs\":[],\"stateMutability\":\"nonpayable\",\"type\":\"constructor\"}],\"devdoc\":{\"details\":\"Contract module that helps prevent reentrant calls to a function. * Inheriting from `ReentrancyGuard` will make the {nonReentrant} modifier available, which can be applied to functions to make sure there are no nested (reentrant) calls to them. * Note that because there is a single `nonReentrant` guard, functions marked as `nonReentrant` may not call one another. This can be worked around by making those functions `private`, and then adding `external` `nonReentrant` entry points to them. * TIP: If you would like to learn more about reentrancy and alternative ways to protect against it, check out our blog post https://blog.openzeppelin.com/reentrancy-after-istanbul/[Reentrancy After Istanbul].\",\"methods\":{}},\"userdoc\":{\"methods\":{}}},\"settings\":{\"compilationTarget\":{\"@openzeppelin/contracts/utils/ReentrancyGuard.sol\":\"ReentrancyGuard\"},\"evmVersion\":\"istanbul\",\"libraries\":{},\"metadata\":{\"bytecodeHash\":\"ipfs\"},\"optimizer\":{\"enabled\":false,\"runs\":200},\"remappings\":[]},\"sources\":{\"@openzeppelin/contracts/utils/ReentrancyGuard.sol\":{\"keccak256\":\"0x7ff0067f2d7df4187eaa1cb4800949b929602c9d9cb20fcaee6922a7613ef2fb\",\"urls\":[\"bzz-raw://78aa63fd7fbb8df2942b6c6e7bd89349507e306edbd5909ee8d9575c31be57e5\",\"dweb:/ipfs/Qmf6z9KWKCJCfEVokgTBhBVq5yHtE6is31N8AV5BHdMkqQ\"]}},\"version\":1}",
  "bytecode": "0x",
  "deployedBytecode": "0x",
  "sourceMap": "",
  "deployedSourceMap": "",
  "source": "// SPDX-License-Identifier: MIT\n\npragma solidity ^0.6.0;\n\n/**\n * @dev Contract module that helps prevent reentrant calls to a function.\n *\n * Inheriting from `ReentrancyGuard` will make the {nonReentrant} modifier\n * available, which can be applied to functions to make sure there are no nested\n * (reentrant) calls to them.\n *\n * Note that because there is a single `nonReentrant` guard, functions marked as\n * `nonReentrant` may not call one another. This can be worked around by making\n * those functions `private`, and then adding `external` `nonReentrant` entry\n * points to them.\n *\n * TIP: If you would like to learn more about reentrancy and alternative ways\n * to protect against it, check out our blog post\n * https://blog.openzeppelin.com/reentrancy-after-istanbul/[Reentrancy After Istanbul].\n */\ncontract ReentrancyGuard {\n    // Booleans are more expensive than uint256 or any type that takes up a full\n    // word because each write operation emits an extra SLOAD to first read the\n    // slot's contents, replace the bits taken up by the boolean, and then write\n    // back. This is the compiler's defense against contract upgrades and\n    // pointer aliasing, and it cannot be disabled.\n\n    // The values being non-zero value makes deployment a bit more expensive,\n    // but in exchange the refund on every call to nonReentrant will be lower in\n    // amount. Since refunds are capped to a percentage of the total\n    // transaction's gas, it is best to keep them low in cases like this one, to\n    // increase the likelihood of the full refund coming into effect.\n    uint256 private constant _NOT_ENTERED = 1;\n    uint256 private constant _ENTERED = 2;\n\n    uint256 private _status;\n\n    constructor () internal {\n        _status = _NOT_ENTERED;\n    }\n\n    /**\n     * @dev Prevents a contract from calling itself, directly or indirectly.\n     * Calling a `nonReentrant` function from another `nonReentrant`\n     * function is not supported. It is possible to prevent this from happening\n     * by making the `nonReentrant` function external, and make it call a\n     * `private` function that does the actual work.\n     */\n    modifier nonReentrant() {\n        // On the first call to nonReentrant, _notEntered will be true\n        require(_status != _ENTERED, \"ReentrancyGuard: reentrant call\");\n\n        // Any calls to nonReentrant after this point will fail\n        _status = _ENTERED;\n\n        _;\n\n        // By storing the original value once again, a refund is triggered (see\n        // https://eips.ethereum.org/EIPS/eip-2200)\n        _status = _NOT_ENTERED;\n    }\n}\n",
  "sourcePath": "@openzeppelin/contracts/utils/ReentrancyGuard.sol",
  "ast": {
    "absolutePath": "@openzeppelin/contracts/utils/ReentrancyGuard.sol",
    "exportedSymbols": {
      "ReentrancyGuard": [
        1819
      ]
    },
    "id": 1820,
    "nodeType": "SourceUnit",
    "nodes": [
      {
        "id": 1783,
        "literals": [
          "solidity",
          "^",
          "0.6",
          ".0"
        ],
        "nodeType": "PragmaDirective",
        "src": "33:23:13"
      },
      {
        "abstract": false,
        "baseContracts": [],
        "contractDependencies": [],
        "contractKind": "contract",
        "documentation": "@dev Contract module that helps prevent reentrant calls to a function.\n * Inheriting from `ReentrancyGuard` will make the {nonReentrant} modifier\navailable, which can be applied to functions to make sure there are no nested\n(reentrant) calls to them.\n * Note that because there is a single `nonReentrant` guard, functions marked as\n`nonReentrant` may not call one another. This can be worked around by making\nthose functions `private`, and then adding `external` `nonReentrant` entry\npoints to them.\n * TIP: If you would like to learn more about reentrancy and alternative ways\nto protect against it, check out our blog post\nhttps://blog.openzeppelin.com/reentrancy-after-istanbul/[Reentrancy After Istanbul].",
        "fullyImplemented": true,
        "id": 1819,
        "linearizedBaseContracts": [
          1819
        ],
        "name": "ReentrancyGuard",
        "nodeType": "ContractDefinition",
        "nodes": [
          {
            "constant": true,
            "id": 1786,
            "name": "_NOT_ENTERED",
            "nodeType": "VariableDeclaration",
            "overrides": null,
            "scope": 1819,
            "src": "1588:41:13",
            "stateVariable": true,
            "storageLocation": "default",
            "typeDescriptions": {
              "typeIdentifier": "t_uint256",
              "typeString": "uint256"
            },
            "typeName": {
              "id": 1784,
              "name": "uint256",
              "nodeType": "ElementaryTypeName",
              "src": "1588:7:13",
              "typeDescriptions": {
                "typeIdentifier": "t_uint256",
                "typeString": "uint256"
              }
            },
            "value": {
              "argumentTypes": null,
              "hexValue": "31",
              "id": 1785,
              "isConstant": false,
              "isLValue": false,
              "isPure": true,
              "kind": "number",
              "lValueRequested": false,
              "nodeType": "Literal",
              "src": "1628:1:13",
              "subdenomination": null,
              "typeDescriptions": {
                "typeIdentifier": "t_rational_1_by_1",
                "typeString": "int_const 1"
              },
              "value": "1"
            },
            "visibility": "private"
          },
          {
            "constant": true,
            "id": 1789,
            "name": "_ENTERED",
            "nodeType": "VariableDeclaration",
            "overrides": null,
            "scope": 1819,
            "src": "1635:37:13",
            "stateVariable": true,
            "storageLocation": "default",
            "typeDescriptions": {
              "typeIdentifier": "t_uint256",
              "typeString": "uint256"
            },
            "typeName": {
              "id": 1787,
              "name": "uint256",
              "nodeType": "ElementaryTypeName",
              "src": "1635:7:13",
              "typeDescriptions": {
                "typeIdentifier": "t_uint256",
                "typeString": "uint256"
              }
            },
            "value": {
              "argumentTypes": null,
              "hexValue": "32",
              "id": 1788,
              "isConstant": false,
              "isLValue": false,
              "isPure": true,
              "kind": "number",
              "lValueRequested": false,
              "nodeType": "Literal",
              "src": "1671:1:13",
              "subdenomination": null,
              "typeDescriptions": {
                "typeIdentifier": "t_rational_2_by_1",
                "typeString": "int_const 2"
              },
              "value": "2"
            },
            "visibility": "private"
          },
          {
            "constant": false,
            "id": 1791,
            "name": "_status",
            "nodeType": "VariableDeclaration",
            "overrides": null,
            "scope": 1819,
            "src": "1679:23:13",
            "stateVariable": true,
            "storageLocation": "default",
            "typeDescriptions": {
              "typeIdentifier": "t_uint256",
              "typeString": "uint256"
            },
            "typeName": {
              "id": 1790,
              "name": "uint256",
              "nodeType": "ElementaryTypeName",
              "src": "1679:7:13",
              "typeDescriptions": {
                "typeIdentifier": "t_uint256",
                "typeString": "uint256"
              }
            },
            "value": null,
            "visibility": "private"
          },
          {
            "body": {
              "id": 1798,
              "nodeType": "Block",
              "src": "1733:39:13",
              "statements": [
                {
                  "expression": {
                    "argumentTypes": null,
                    "id": 1796,
                    "isConstant": false,
                    "isLValue": false,
                    "isPure": false,
                    "lValueRequested": false,
                    "leftHandSide": {
                      "argumentTypes": null,
                      "id": 1794,
                      "name": "_status",
                      "nodeType": "Identifier",
                      "overloadedDeclarations": [],
                      "referencedDeclaration": 1791,
                      "src": "1743:7:13",
                      "typeDescriptions": {
                        "typeIdentifier": "t_uint256",
                        "typeString": "uint256"
                      }
                    },
                    "nodeType": "Assignment",
                    "operator": "=",
                    "rightHandSide": {
                      "argumentTypes": null,
                      "id": 1795,
                      "name": "_NOT_ENTERED",
                      "nodeType": "Identifier",
                      "overloadedDeclarations": [],
                      "referencedDeclaration": 1786,
                      "src": "1753:12:13",
                      "typeDescriptions": {
                        "typeIdentifier": "t_uint256",
                        "typeString": "uint256"
                      }
                    },
                    "src": "1743:22:13",
                    "typeDescriptions": {
                      "typeIdentifier": "t_uint256",
                      "typeString": "uint256"
                    }
                  },
                  "id": 1797,
                  "nodeType": "ExpressionStatement",
                  "src": "1743:22:13"
                }
              ]
            },
            "documentation": null,
            "id": 1799,
            "implemented": true,
            "kind": "constructor",
            "modifiers": [],
            "name": "",
            "nodeType": "FunctionDefinition",
            "overrides": null,
            "parameters": {
              "id": 1792,
              "nodeType": "ParameterList",
              "parameters": [],
              "src": "1721:2:13"
            },
            "returnParameters": {
              "id": 1793,
              "nodeType": "ParameterList",
              "parameters": [],
              "src": "1733:0:13"
            },
            "scope": 1819,
            "src": "1709:63:13",
            "stateMutability": "nonpayable",
            "virtual": false,
            "visibility": "internal"
          },
          {
            "body": {
              "id": 1817,
              "nodeType": "Block",
              "src": "2171:421:13",
              "statements": [
                {
                  "expression": {
                    "argumentTypes": null,
                    "arguments": [
                      {
                        "argumentTypes": null,
                        "commonType": {
                          "typeIdentifier": "t_uint256",
                          "typeString": "uint256"
                        },
                        "id": 1804,
                        "isConstant": false,
                        "isLValue": false,
                        "isPure": false,
                        "lValueRequested": false,
                        "leftExpression": {
                          "argumentTypes": null,
                          "id": 1802,
                          "name": "_status",
                          "nodeType": "Identifier",
                          "overloadedDeclarations": [],
                          "referencedDeclaration": 1791,
                          "src": "2260:7:13",
                          "typeDescriptions": {
                            "typeIdentifier": "t_uint256",
                            "typeString": "uint256"
                          }
                        },
                        "nodeType": "BinaryOperation",
                        "operator": "!=",
                        "rightExpression": {
                          "argumentTypes": null,
                          "id": 1803,
                          "name": "_ENTERED",
                          "nodeType": "Identifier",
                          "overloadedDeclarations": [],
                          "referencedDeclaration": 1789,
                          "src": "2271:8:13",
                          "typeDescriptions": {
                            "typeIdentifier": "t_uint256",
                            "typeString": "uint256"
                          }
                        },
                        "src": "2260:19:13",
                        "typeDescriptions": {
                          "typeIdentifier": "t_bool",
                          "typeString": "bool"
                        }
                      },
                      {
                        "argumentTypes": null,
                        "hexValue": "5265656e7472616e637947756172643a207265656e7472616e742063616c6c",
                        "id": 1805,
                        "isConstant": false,
                        "isLValue": false,
                        "isPure": true,
                        "kind": "string",
                        "lValueRequested": false,
                        "nodeType": "Literal",
                        "src": "2281:33:13",
                        "subdenomination": null,
                        "typeDescriptions": {
                          "typeIdentifier": "t_stringliteral_ebf73bba305590e4764d5cb53b69bffd6d4d092d1a67551cb346f8cfcdab8619",
                          "typeString": "literal_string \"ReentrancyGuard: reentrant call\""
                        },
                        "value": "ReentrancyGuard: reentrant call"
                      }
                    ],
                    "expression": {
                      "argumentTypes": [
                        {
                          "typeIdentifier": "t_bool",
                          "typeString": "bool"
                        },
                        {
                          "typeIdentifier": "t_stringliteral_ebf73bba305590e4764d5cb53b69bffd6d4d092d1a67551cb346f8cfcdab8619",
                          "typeString": "literal_string \"ReentrancyGuard: reentrant call\""
                        }
                      ],
                      "id": 1801,
                      "name": "require",
                      "nodeType": "Identifier",
                      "overloadedDeclarations": [
                        -18,
                        -18
                      ],
                      "referencedDeclaration": -18,
                      "src": "2252:7:13",
                      "typeDescriptions": {
                        "typeIdentifier": "t_function_require_pure$_t_bool_$_t_string_memory_ptr_$returns$__$",
                        "typeString": "function (bool,string memory) pure"
                      }
                    },
                    "id": 1806,
                    "isConstant": false,
                    "isLValue": false,
                    "isPure": false,
                    "kind": "functionCall",
                    "lValueRequested": false,
                    "names": [],
                    "nodeType": "FunctionCall",
                    "src": "2252:63:13",
                    "tryCall": false,
                    "typeDescriptions": {
                      "typeIdentifier": "t_tuple$__$",
                      "typeString": "tuple()"
                    }
                  },
                  "id": 1807,
                  "nodeType": "ExpressionStatement",
                  "src": "2252:63:13"
                },
                {
                  "expression": {
                    "argumentTypes": null,
                    "id": 1810,
                    "isConstant": false,
                    "isLValue": false,
                    "isPure": false,
                    "lValueRequested": false,
                    "leftHandSide": {
                      "argumentTypes": null,
                      "id": 1808,
                      "name": "_status",
                      "nodeType": "Identifier",
                      "overloadedDeclarations": [],
                      "referencedDeclaration": 1791,
                      "src": "2390:7:13",
                      "typeDescriptions": {
                        "typeIdentifier": "t_uint256",
                        "typeString": "uint256"
                      }
                    },
                    "nodeType": "Assignment",
                    "operator": "=",
                    "rightHandSide": {
                      "argumentTypes": null,
                      "id": 1809,
                      "name": "_ENTERED",
                      "nodeType": "Identifier",
                      "overloadedDeclarations": [],
                      "referencedDeclaration": 1789,
                      "src": "2400:8:13",
                      "typeDescriptions": {
                        "typeIdentifier": "t_uint256",
                        "typeString": "uint256"
                      }
                    },
                    "src": "2390:18:13",
                    "typeDescriptions": {
                      "typeIdentifier": "t_uint256",
                      "typeString": "uint256"
                    }
                  },
                  "id": 1811,
                  "nodeType": "ExpressionStatement",
                  "src": "2390:18:13"
                },
                {
                  "id": 1812,
                  "nodeType": "PlaceholderStatement",
                  "src": "2419:1:13"
                },
                {
                  "expression": {
                    "argumentTypes": null,
                    "id": 1815,
                    "isConstant": false,
                    "isLValue": false,
                    "isPure": false,
                    "lValueRequested": false,
                    "leftHandSide": {
                      "argumentTypes": null,
                      "id": 1813,
                      "name": "_status",
                      "nodeType": "Identifier",
                      "overloadedDeclarations": [],
                      "referencedDeclaration": 1791,
                      "src": "2563:7:13",
                      "typeDescriptions": {
                        "typeIdentifier": "t_uint256",
                        "typeString": "uint256"
                      }
                    },
                    "nodeType": "Assignment",
                    "operator": "=",
                    "rightHandSide": {
                      "argumentTypes": null,
                      "id": 1814,
                      "name": "_NOT_ENTERED",
                      "nodeType": "Identifier",
                      "overloadedDeclarations": [],
                      "referencedDeclaration": 1786,
                      "src": "2573:12:13",
                      "typeDescriptions": {
                        "typeIdentifier": "t_uint256",
                        "typeString": "uint256"
                      }
                    },
                    "src": "2563:22:13",
                    "typeDescriptions": {
                      "typeIdentifier": "t_uint256",
                      "typeString": "uint256"
                    }
                  },
                  "id": 1816,
                  "nodeType": "ExpressionStatement",
                  "src": "2563:22:13"
                }
              ]
            },
            "documentation": "@dev Prevents a contract from calling itself, directly or indirectly.\nCalling a `nonReentrant` function from another `nonReentrant`\nfunction is not supported. It is possible to prevent this from happening\nby making the `nonReentrant` function external, and make it call a\n`private` function that does the actual work.",
            "id": 1818,
            "name": "nonReentrant",
            "nodeType": "ModifierDefinition",
            "overrides": null,
            "parameters": {
              "id": 1800,
              "nodeType": "ParameterList",
              "parameters": [],
              "src": "2168:2:13"
            },
            "src": "2147:445:13",
            "virtual": false,
            "visibility": "internal"
          }
        ],
        "scope": 1820,
        "src": "809:1785:13"
      }
    ],
    "src": "33:2562:13"
  },
  "legacyAST": {
    "absolutePath": "@openzeppelin/contracts/utils/ReentrancyGuard.sol",
    "exportedSymbols": {
      "ReentrancyGuard": [
        1819
      ]
    },
    "id": 1820,
    "nodeType": "SourceUnit",
    "nodes": [
      {
        "id": 1783,
        "literals": [
          "solidity",
          "^",
          "0.6",
          ".0"
        ],
        "nodeType": "PragmaDirective",
        "src": "33:23:13"
      },
      {
        "abstract": false,
        "baseContracts": [],
        "contractDependencies": [],
        "contractKind": "contract",
        "documentation": "@dev Contract module that helps prevent reentrant calls to a function.\n * Inheriting from `ReentrancyGuard` will make the {nonReentrant} modifier\navailable, which can be applied to functions to make sure there are no nested\n(reentrant) calls to them.\n * Note that because there is a single `nonReentrant` guard, functions marked as\n`nonReentrant` may not call one another. This can be worked around by making\nthose functions `private`, and then adding `external` `nonReentrant` entry\npoints to them.\n * TIP: If you would like to learn more about reentrancy and alternative ways\nto protect against it, check out our blog post\nhttps://blog.openzeppelin.com/reentrancy-after-istanbul/[Reentrancy After Istanbul].",
        "fullyImplemented": true,
        "id": 1819,
        "linearizedBaseContracts": [
          1819
        ],
        "name": "ReentrancyGuard",
        "nodeType": "ContractDefinition",
        "nodes": [
          {
            "constant": true,
            "id": 1786,
            "name": "_NOT_ENTERED",
            "nodeType": "VariableDeclaration",
            "overrides": null,
            "scope": 1819,
            "src": "1588:41:13",
            "stateVariable": true,
            "storageLocation": "default",
            "typeDescriptions": {
              "typeIdentifier": "t_uint256",
              "typeString": "uint256"
            },
            "typeName": {
              "id": 1784,
              "name": "uint256",
              "nodeType": "ElementaryTypeName",
              "src": "1588:7:13",
              "typeDescriptions": {
                "typeIdentifier": "t_uint256",
                "typeString": "uint256"
              }
            },
            "value": {
              "argumentTypes": null,
              "hexValue": "31",
              "id": 1785,
              "isConstant": false,
              "isLValue": false,
              "isPure": true,
              "kind": "number",
              "lValueRequested": false,
              "nodeType": "Literal",
              "src": "1628:1:13",
              "subdenomination": null,
              "typeDescriptions": {
                "typeIdentifier": "t_rational_1_by_1",
                "typeString": "int_const 1"
              },
              "value": "1"
            },
            "visibility": "private"
          },
          {
            "constant": true,
            "id": 1789,
            "name": "_ENTERED",
            "nodeType": "VariableDeclaration",
            "overrides": null,
            "scope": 1819,
            "src": "1635:37:13",
            "stateVariable": true,
            "storageLocation": "default",
            "typeDescriptions": {
              "typeIdentifier": "t_uint256",
              "typeString": "uint256"
            },
            "typeName": {
              "id": 1787,
              "name": "uint256",
              "nodeType": "ElementaryTypeName",
              "src": "1635:7:13",
              "typeDescriptions": {
                "typeIdentifier": "t_uint256",
                "typeString": "uint256"
              }
            },
            "value": {
              "argumentTypes": null,
              "hexValue": "32",
              "id": 1788,
              "isConstant": false,
              "isLValue": false,
              "isPure": true,
              "kind": "number",
              "lValueRequested": false,
              "nodeType": "Literal",
              "src": "1671:1:13",
              "subdenomination": null,
              "typeDescriptions": {
                "typeIdentifier": "t_rational_2_by_1",
                "typeString": "int_const 2"
              },
              "value": "2"
            },
            "visibility": "private"
          },
          {
            "constant": false,
            "id": 1791,
            "name": "_status",
            "nodeType": "VariableDeclaration",
            "overrides": null,
            "scope": 1819,
            "src": "1679:23:13",
            "stateVariable": true,
            "storageLocation": "default",
            "typeDescriptions": {
              "typeIdentifier": "t_uint256",
              "typeString": "uint256"
            },
            "typeName": {
              "id": 1790,
              "name": "uint256",
              "nodeType": "ElementaryTypeName",
              "src": "1679:7:13",
              "typeDescriptions": {
                "typeIdentifier": "t_uint256",
                "typeString": "uint256"
              }
            },
            "value": null,
            "visibility": "private"
          },
          {
            "body": {
              "id": 1798,
              "nodeType": "Block",
              "src": "1733:39:13",
              "statements": [
                {
                  "expression": {
                    "argumentTypes": null,
                    "id": 1796,
                    "isConstant": false,
                    "isLValue": false,
                    "isPure": false,
                    "lValueRequested": false,
                    "leftHandSide": {
                      "argumentTypes": null,
                      "id": 1794,
                      "name": "_status",
                      "nodeType": "Identifier",
                      "overloadedDeclarations": [],
                      "referencedDeclaration": 1791,
                      "src": "1743:7:13",
                      "typeDescriptions": {
                        "typeIdentifier": "t_uint256",
                        "typeString": "uint256"
                      }
                    },
                    "nodeType": "Assignment",
                    "operator": "=",
                    "rightHandSide": {
                      "argumentTypes": null,
                      "id": 1795,
                      "name": "_NOT_ENTERED",
                      "nodeType": "Identifier",
                      "overloadedDeclarations": [],
                      "referencedDeclaration": 1786,
                      "src": "1753:12:13",
                      "typeDescriptions": {
                        "typeIdentifier": "t_uint256",
                        "typeString": "uint256"
                      }
                    },
                    "src": "1743:22:13",
                    "typeDescriptions": {
                      "typeIdentifier": "t_uint256",
                      "typeString": "uint256"
                    }
                  },
                  "id": 1797,
                  "nodeType": "ExpressionStatement",
                  "src": "1743:22:13"
                }
              ]
            },
            "documentation": null,
            "id": 1799,
            "implemented": true,
            "kind": "constructor",
            "modifiers": [],
            "name": "",
            "nodeType": "FunctionDefinition",
            "overrides": null,
            "parameters": {
              "id": 1792,
              "nodeType": "ParameterList",
              "parameters": [],
              "src": "1721:2:13"
            },
            "returnParameters": {
              "id": 1793,
              "nodeType": "ParameterList",
              "parameters": [],
              "src": "1733:0:13"
            },
            "scope": 1819,
            "src": "1709:63:13",
            "stateMutability": "nonpayable",
            "virtual": false,
            "visibility": "internal"
          },
          {
            "body": {
              "id": 1817,
              "nodeType": "Block",
              "src": "2171:421:13",
              "statements": [
                {
                  "expression": {
                    "argumentTypes": null,
                    "arguments": [
                      {
                        "argumentTypes": null,
                        "commonType": {
                          "typeIdentifier": "t_uint256",
                          "typeString": "uint256"
                        },
                        "id": 1804,
                        "isConstant": false,
                        "isLValue": false,
                        "isPure": false,
                        "lValueRequested": false,
                        "leftExpression": {
                          "argumentTypes": null,
                          "id": 1802,
                          "name": "_status",
                          "nodeType": "Identifier",
                          "overloadedDeclarations": [],
                          "referencedDeclaration": 1791,
                          "src": "2260:7:13",
                          "typeDescriptions": {
                            "typeIdentifier": "t_uint256",
                            "typeString": "uint256"
                          }
                        },
                        "nodeType": "BinaryOperation",
                        "operator": "!=",
                        "rightExpression": {
                          "argumentTypes": null,
                          "id": 1803,
                          "name": "_ENTERED",
                          "nodeType": "Identifier",
                          "overloadedDeclarations": [],
                          "referencedDeclaration": 1789,
                          "src": "2271:8:13",
                          "typeDescriptions": {
                            "typeIdentifier": "t_uint256",
                            "typeString": "uint256"
                          }
                        },
                        "src": "2260:19:13",
                        "typeDescriptions": {
                          "typeIdentifier": "t_bool",
                          "typeString": "bool"
                        }
                      },
                      {
                        "argumentTypes": null,
                        "hexValue": "5265656e7472616e637947756172643a207265656e7472616e742063616c6c",
                        "id": 1805,
                        "isConstant": false,
                        "isLValue": false,
                        "isPure": true,
                        "kind": "string",
                        "lValueRequested": false,
                        "nodeType": "Literal",
                        "src": "2281:33:13",
                        "subdenomination": null,
                        "typeDescriptions": {
                          "typeIdentifier": "t_stringliteral_ebf73bba305590e4764d5cb53b69bffd6d4d092d1a67551cb346f8cfcdab8619",
                          "typeString": "literal_string \"ReentrancyGuard: reentrant call\""
                        },
                        "value": "ReentrancyGuard: reentrant call"
                      }
                    ],
                    "expression": {
                      "argumentTypes": [
                        {
                          "typeIdentifier": "t_bool",
                          "typeString": "bool"
                        },
                        {
                          "typeIdentifier": "t_stringliteral_ebf73bba305590e4764d5cb53b69bffd6d4d092d1a67551cb346f8cfcdab8619",
                          "typeString": "literal_string \"ReentrancyGuard: reentrant call\""
                        }
                      ],
                      "id": 1801,
                      "name": "require",
                      "nodeType": "Identifier",
                      "overloadedDeclarations": [
                        -18,
                        -18
                      ],
                      "referencedDeclaration": -18,
                      "src": "2252:7:13",
                      "typeDescriptions": {
                        "typeIdentifier": "t_function_require_pure$_t_bool_$_t_string_memory_ptr_$returns$__$",
                        "typeString": "function (bool,string memory) pure"
                      }
                    },
                    "id": 1806,
                    "isConstant": false,
                    "isLValue": false,
                    "isPure": false,
                    "kind": "functionCall",
                    "lValueRequested": false,
                    "names": [],
                    "nodeType": "FunctionCall",
                    "src": "2252:63:13",
                    "tryCall": false,
                    "typeDescriptions": {
                      "typeIdentifier": "t_tuple$__$",
                      "typeString": "tuple()"
                    }
                  },
                  "id": 1807,
                  "nodeType": "ExpressionStatement",
                  "src": "2252:63:13"
                },
                {
                  "expression": {
                    "argumentTypes": null,
                    "id": 1810,
                    "isConstant": false,
                    "isLValue": false,
                    "isPure": false,
                    "lValueRequested": false,
                    "leftHandSide": {
                      "argumentTypes": null,
                      "id": 1808,
                      "name": "_status",
                      "nodeType": "Identifier",
                      "overloadedDeclarations": [],
                      "referencedDeclaration": 1791,
                      "src": "2390:7:13",
                      "typeDescriptions": {
                        "typeIdentifier": "t_uint256",
                        "typeString": "uint256"
                      }
                    },
                    "nodeType": "Assignment",
                    "operator": "=",
                    "rightHandSide": {
                      "argumentTypes": null,
                      "id": 1809,
                      "name": "_ENTERED",
                      "nodeType": "Identifier",
                      "overloadedDeclarations": [],
                      "referencedDeclaration": 1789,
                      "src": "2400:8:13",
                      "typeDescriptions": {
                        "typeIdentifier": "t_uint256",
                        "typeString": "uint256"
                      }
                    },
                    "src": "2390:18:13",
                    "typeDescriptions": {
                      "typeIdentifier": "t_uint256",
                      "typeString": "uint256"
                    }
                  },
                  "id": 1811,
                  "nodeType": "ExpressionStatement",
                  "src": "2390:18:13"
                },
                {
                  "id": 1812,
                  "nodeType": "PlaceholderStatement",
                  "src": "2419:1:13"
                },
                {
                  "expression": {
                    "argumentTypes": null,
                    "id": 1815,
                    "isConstant": false,
                    "isLValue": false,
                    "isPure": false,
                    "lValueRequested": false,
                    "leftHandSide": {
                      "argumentTypes": null,
                      "id": 1813,
                      "name": "_status",
                      "nodeType": "Identifier",
                      "overloadedDeclarations": [],
                      "referencedDeclaration": 1791,
                      "src": "2563:7:13",
                      "typeDescriptions": {
                        "typeIdentifier": "t_uint256",
                        "typeString": "uint256"
                      }
                    },
                    "nodeType": "Assignment",
                    "operator": "=",
                    "rightHandSide": {
                      "argumentTypes": null,
                      "id": 1814,
                      "name": "_NOT_ENTERED",
                      "nodeType": "Identifier",
                      "overloadedDeclarations": [],
                      "referencedDeclaration": 1786,
                      "src": "2573:12:13",
                      "typeDescriptions": {
                        "typeIdentifier": "t_uint256",
                        "typeString": "uint256"
                      }
                    },
                    "src": "2563:22:13",
                    "typeDescriptions": {
                      "typeIdentifier": "t_uint256",
                      "typeString": "uint256"
                    }
                  },
                  "id": 1816,
                  "nodeType": "ExpressionStatement",
                  "src": "2563:22:13"
                }
              ]
            },
            "documentation": "@dev Prevents a contract from calling itself, directly or indirectly.\nCalling a `nonReentrant` function from another `nonReentrant`\nfunction is not supported. It is possible to prevent this from happening\nby making the `nonReentrant` function external, and make it call a\n`private` function that does the actual work.",
            "id": 1818,
            "name": "nonReentrant",
            "nodeType": "ModifierDefinition",
            "overrides": null,
            "parameters": {
              "id": 1800,
              "nodeType": "ParameterList",
              "parameters": [],
              "src": "2168:2:13"
            },
            "src": "2147:445:13",
            "virtual": false,
            "visibility": "internal"
          }
        ],
        "scope": 1820,
        "src": "809:1785:13"
      }
    ],
    "src": "33:2562:13"
  },
  "compiler": {
    "name": "solc",
    "version": "0.6.2+commit.bacdbe57.Emscripten.clang"
  },
  "networks": {},
  "schemaVersion": "3.2.5",
  "updatedAt": "2020-09-18T14:08:20.849Z",
  "devdoc": {
    "details": "Contract module that helps prevent reentrant calls to a function. * Inheriting from `ReentrancyGuard` will make the {nonReentrant} modifier available, which can be applied to functions to make sure there are no nested (reentrant) calls to them. * Note that because there is a single `nonReentrant` guard, functions marked as `nonReentrant` may not call one another. This can be worked around by making those functions `private`, and then adding `external` `nonReentrant` entry points to them. * TIP: If you would like to learn more about reentrancy and alternative ways to protect against it, check out our blog post https://blog.openzeppelin.com/reentrancy-after-istanbul/[Reentrancy After Istanbul].",
    "methods": {}
  },
  "userdoc": {
    "methods": {}
  }
}